Bringing Data to Life - Introduction to Choropleth Mapping
…
Changing of Projection

mpsz3414 <- st_set_crs(mpsz, 3414)

preschool3414 <- st_transform(preschool, 
                              crs = 3414)

Importing and Converting An Aspatial Data

listings <- read_csv("data/aspatial/listings.csv")
list(listings) 

[[1]]
# A tibble: 4,252 × 16
       id name         host_id host_name neighbourhood_g… neighbourhood latitude
    <dbl> <chr>          <dbl> <chr>     <chr>            <chr>            <dbl>
 1  50646 Pleasant Ro…  227796 Sujatha   Central Region   Bukit Timah       1.33
 2  71609 Ensuite Roo…  367042 Belinda   East Region      Tampines          1.35
 3  71896 B&B  Room 1…  367042 Belinda   East Region      Tampines          1.35
 4  71903 Room 2-near…  367042 Belinda   East Region      Tampines          1.35
 5 275343 Convenientl… 1439258 Joyce     Central Region   Bukit Merah       1.29
 6 275344 15 mins to … 1439258 Joyce     Central Region   Bukit Merah       1.29
 7 294281 5 mins walk… 1521514 Elizabeth Central Region   Newton            1.31
 8 301247 Nice room w… 1552002 Rahul     Central Region   Geylang           1.32
 9 324945 20 Mins to … 1439258 Joyce     Central Region   Bukit Merah       1.29
10 330089 Accomo@ RED… 1439258 Joyce     Central Region   Bukit Merah       1.29
# … with 4,242 more rows, and 9 more variables: longitude <dbl>,
#   room_type <chr>, price <dbl>, minimum_nights <dbl>,
#   number_of_reviews <dbl>, last_review <date>, reviews_per_month <dbl>,
#   calculated_host_listings_count <dbl>, availability_365 <dbl>
…
